relatórios/primeiro_teste_24v/ALL0003/F0003CH2.CSV

Record Length,2.500000e+03,,  -0.000005000000,  15.20000,
Sample Interval,1.000000e-08,,  -0.000004990000,  15.20000,
Trigger Point,5.000000000000e+02,,  -0.000004980000,  15.00000,
,,,  -0.000004970000,  15.00000,
,,,  -0.000004960000,  15.20000,
,,,  -0.000004950000,  15.20000,
Source,CH2,,  -0.000004940000,  15.00000,
Vertical Units,V,,  -0.000004930000,  15.20000,
Vertical Scale,5.000000e+00,,  -0.000004920000,  15.00000,
Vertical Offset,-1.500000e+01,,  -0.000004910000,  15.20000,
Horizontal Units,s,,  -0.000004900000,  15.20000,
Horizontal Scale,2.500000e-06,,  -0.000004890000,  15.20000,
Pt Fmt,Y,,  -0.000004880000,  15.20000,
Yzero,0.000000e+00,,  -0.000004870000,  15.20000,
Probe Atten,1.000000e+01,,  -0.000004860000,  15.20000,
Model Number,TDS1012C-EDU,,  -0.000004850000,  15.20000,
Serial Number,C013516,,  -0.000004840000,  15.20000,
Firmware Version,FV:v25.07,,  -0.000004830000,  15.20000,
,,,-00.000004820000,  15.20000,
,,,-00.000004810000,  15.20000,
,,,-00.000004800000,  15.20000,
,,,-00.000004790000,  15.20000,
,,,-00.000004780000,  15.20000,
,,,-00.000004770000,  15.20000,
,,,-00.000004760000,  15.20000,
,,,-00.000004750000,  15.20000,
,,,-00.000004740000,  15.20000,
,,,-00.000004730000,  15.20000,
,,,-00.000004720000,  15.20000,
,,,-00.000004710000,  15.00000,
,,,-00.000004700000,  15.00000,
,,,-00.000004690000,  15.00000,
,,,-00.000004680000,  15.20000,
,,,-00.000004670000,  15.20000,
,,,-00.000004660000,  15.00000,
,,,-00.000004650000,  15.20000,
,,,-00.000004640000,  15.00000,
,,,-00.000004630000,  15.00000,
,,,-00.000004620000,  15.20000,
,,,-00.000004610000,  15.20000,
,,,-00.000004600000,  15.00000,
,,,-00.000004590000,  15.00000,
,,,-00.000004580000,  15.20000,
,,,-00.000004570000,  15.20000,
,,,-00.000004560000,  15.20000,
,,,-00.000004550000,  15.00000,
,,,-00.000004540000,  15.20000,
,,,-00.000004530000,  15.20000,
,,,-00.000004520000,  15.20000,
,,,-00.000004510000,  15.20000,
,,,-00.000004500000,  15.00000,
,,,-00.000004490000,  15.00000,
,,,-00.000004480000,  15.20000,
,,,-00.000004470000,  15.20000,
,,,-00.000004460000,  15.20000,
,,,-00.000004450000,  15.20000,
,,,-00.000004440000,  15.20000,
,,,-00.000004430000,  15.20000,
,,,-00.000004420000,  15.20000,
,,,-00.000004410000,  15.00000,
,,,-00.000004400000,  15.20000,
,,,-00.000004390000,  15.00000,
,,,-00.000004380000,  15.00000,
,,,-00.000004370000,  15.20000,
,,,-00.000004360000,  15.00000,
,,,-00.000004350000,  15.20000,
,,,-00.000004340000,  15.00000,
,,,-00.000004330000,  15.20000,
,,,-00.000004320000,  15.20000,
,,,-00.000004310000,  15.00000,
,,,-00.000004300000,  15.20000,
,,,-00.000004290000,  15.20000,
,,,-00.000004280000,  15.20000,
,,,-00.000004270000,  15.00000,
,,,-00.000004260000,  15.20000,
,,,-00.000004250000,  15.20000,
,,,-00.000004240000,  15.00000,
,,,-00.000004230000,  15.20000,
,,,-00.000004220000,  15.20000,
,,,-00.000004210000,  15.20000,
,,,-00.000004200000,  15.00000,
,,,-00.000004190000,  15.20000,
,,,-00.000004180000,  15.20000,
,,,-00.000004170000,  15.00000,
,,,-00.000004160000,  15.00000,
,,,-00.000004150000,  15.20000,
,,,-00.000004140000,  15.20000,
,,,-00.000004130000,  15.20000,
,,,-00.000004120000,  15.20000,
,,,-00.000004110000,  15.20000,
,,,-00.000004100000,  15.20000,
,,,-00.000004090000,  15.00000,
,,,-00.000004080000,  15.00000,
,,,-00.000004070000,  15.00000,
,,,-00.000004060000,  15.00000,
,,,-00.000004050000,  15.00000,
,,,-00.000004040000,  15.20000,
,,,-00.000004030000,  15.20000,
,,,-00.000004020000,  15.00000,
,,,-00.000004010000,  15.20000,
,,,-00.000004000000,  15.20000,
,,,-00.000003990000,  15.20000,
,,,-00.000003980000,  15.00000,
,,,-00.000003970000,  15.00000,
,,,-00.000003960000,  15.00000,
,,,-00.000003950000,  15.20000,
,,,-00.000003940000,  15.00000,
,,,-00.000003930000,  15.20000,
,,,-00.000003920000,  15.20000,
,,,-00.000003910000,  15.00000,
,,,-00.000003900000,  15.20000,
,,,-00.000003890000,  15.20000,
,,,-00.000003880000,  15.20000,
,,,-00.000003870000,  15.20000,
,,,-00.000003860000,  15.20000,
,,,-00.000003850000,  15.00000,
,,,-00.000003840000,  15.20000,
,,,-00.000003830000,  15.20000,
,,,-00.000003820000,  15.20000,
,,,-00.000003810000,  15.20000,
,,,-00.000003800000,  15.00000,
,,,-00.000003790000,  15.00000,
,,,-00.000003780000,  15.00000,
,,,-00.000003770000,  15.20000,
,,,-00.000003760000,  15.00000,
,,,-00.000003750000,  15.20000,
,,,-00.000003740000,  15.20000,
,,,-00.000003730000,  15.00000,
,,,-00.000003720000,  15.20000,
,,,-00.000003710000,  15.20000,
,,,-00.000003700000,  15.20000,
,,,-00.000003690000,  15.00000,
,,,-00.000003680000,  15.00000,
,,,-00.000003670000,  15.20000,
,,,-00.000003660000,  15.00000,
,,,-00.000003650000,  15.00000,
,,,-00.000003640000,  15.00000,
,,,-00.000003630000,  15.00000,
,,,-00.000003620000,  15.20000,
,,,-00.000003610000,  15.00000,
,,,-00.000003600000,  15.20000,
,,,-00.000003590000,  15.20000,
,,,-00.000003580000,  15.20000,
,,,-00.000003570000,  15.20000,
,,,-00.000003560000,  15.00000,
,,,-00.000003550000,  15.20000,
,,,-00.000003540000,  15.00000,
,,,-00.000003530000,  15.20000,
,,,-00.000003520000,  15.00000,
,,,-00.000003510000,  15.00000,
,,,-00.000003500000,  15.00000,
,,,-00.000003490000,  15.20000,
,,,-00.000003480000,  15.20000,
,,,-00.000003470000,  15.20000,
,,,-00.000003460000,  15.20000,
,,,-00.000003450000,  15.20000,
,,,-00.000003440000,  15.20000,
,,,-00.000003430000,  15.20000,
,,,-00.000003420000,  15.20000,
,,,-00.000003410000,  15.20000,
,,,-00.000003400000,  15.00000,
,,,-00.000003390000,  15.20000,
,,,-00.000003380000,  15.00000,
,,,-00.000003370000,  15.00000,
,,,-00.000003360000,  15.00000,
,,,-00.000003350000,  15.00000,
,,,-00.000003340000,  15.00000,
,,,-00.000003330000,  15.20000,
,,,-00.000003320000,  15.20000,
,,,-00.000003310000,  15.20000,
,,,-00.000003300000,  15.20000,
,,,-00.000003290000,  15.00000,
,,,-00.000003280000,  15.00000,
,,,-00.000003270000,  15.00000,
,,,-00.000003260000,  15.00000,
,,,-00.000003250000,  15.00000,
,,,-00.000003240000,  15.00000,
,,,-00.000003230000,  15.00000,
,,,-00.000003220000,  15.20000,
,,,-00.000003210000,  15.00000,
,,,-00.000003200000,  15.00000,
,,,-00.000003190000,  15.20000,
,,,-00.000003180000,  15.00000,
,,,-00.000003170000,  15.00000,
,,,-00.000003160000,  15.20000,
,,,-00.000003150000,  15.20000,
,,,-00.000003140000,  15.20000,
,,,-00.000003130000,  15.20000,
,,,-00.000003120000,  15.20000,
,,,-00.000003110000,  15.20000,
,,,-00.000003100000,  15.20000,
,,,-00.000003090000,  15.00000,
,,,-00.000003080000,  15.00000,
,,,-00.000003070000,  15.20000,
,,,-00.000003060000,  15.00000,
,,,-00.000003050000,  15.00000,
,,,-00.000003040000,  15.20000,
,,,-00.000003030000,  15.20000,
,,,-00.000003020000,  15.00000,
,,,-00.000003010000,  15.20000,
,,,-00.000003000000,  15.00000,
,,,-00.000002990000,  15.20000,
,,,-00.000002980000,  15.00000,
,,,-00.000002970000,  15.00000,
,,,-00.000002960000,  15.00000,
,,,-00.000002950000,  15.00000,
,,,-00.000002940000,  15.20000,
,,,-00.000002930000,  15.20000,
,,,-00.000002920000,  15.20000,
,,,-00.000002910000,  15.20000,
,,,-00.000002900000,  15.00000,
,,,-00.000002890000,  15.20000,
,,,-00.000002880000,  15.20000,
,,,-00.000002870000,  15.20000,
,,,-00.000002860000,  15.20000,
,,,-00.000002850000,  15.00000,
,,,-00.000002840000,  15.20000,
,,,-00.000002830000,  15.20000,
,,,-00.000002820000,  15.00000,
,,,-00.000002810000,  15.20000,
,,,-00.000002800000,  15.00000,
,,,-00.000002790000,  15.20000,
,,,-00.000002780000,  15.20000,
,,,-00.000002770000,  15.20000,
,,,-00.000002760000,  15.20000,
,,,-00.000002750000,  15.20000,
,,,-00.000002740000,  15.20000,
,,,-00.000002730000,  15.20000,
,,,-00.000002720000,  15.00000,
,,,-00.000002710000,  15.00000,
,,,-00.000002700000,  15.20000,
,,,-00.000002690000,  15.20000,
,,,-00.000002680000,  15.00000,
,,,-00.000002670000,  15.00000,
,,,-00.000002660000,  15.00000,
,,,-00.000002650000,  15.00000,
,,,-00.000002640000,  15.00000,
,,,-00.000002630000,  15.20000,
,,,-00.000002620000,  15.20000,
,,,-00.000002610000,  15.20000,
,,,-00.000002600000,  15.20000,
,,,-00.000002590000,  15.20000,
,,,-00.000002580000,  15.20000,
,,,-00.000002570000,  15.20000,
,,,-00.000002560000,  15.20000,
,,,-00.000002550000,  15.00000,
,,,-00.000002540000,  15.20000,
,,,-00.000002530000,  15.20000,
,,,-00.000002520000,  15.20000,
,,,-00.000002510000,  15.00000,
,,,-00.000002500000,  15.20000,
,,,-00.000002490000,  15.20000,
,,,-00.000002480000,  15.20000,
,,,-00.000002470000,  15.20000,
,,,-00.000002460000,  15.20000,
,,,-00.000002450000,  15.00000,
,,,-00.000002440000,  15.20000,
,,,-00.000002430000,  15.00000,
,,,-00.000002420000,  15.20000,
,,,-00.000002410000,  15.20000,
,,,-00.000002400000,  15.20000,
,,,-00.000002390000,  15.20000,
,,,-00.000002380000,  15.20000,
,,,-00.000002370000,  15.20000,
,,,-00.000002360000,  15.00000,
,,,-00.000002350000,  15.20000,
,,,-00.000002340000,  15.00000,
,,,-00.000002330000,  15.20000,
,,,-00.000002320000,  15.00000,
,,,-00.000002310000,  15.20000,
,,,-00.000002300000,  15.20000,
,,,-00.000002290000,  15.20000,
,,,-00.000002280000,  15.00000,
,,,-00.000002270000,  15.20000,
,,,-00.000002260000,  15.00000,
,,,-00.000002250000,  15.20000,
,,,-00.000002240000,  15.20000,
,,,-00.000002230000,  15.20000,
,,,-00.000002220000,  15.20000,
,,,-00.000002210000,  15.20000,
,,,-00.000002200000,  15.00000,
,,,-00.000002190000,  15.20000,
,,,-00.000002180000,  15.00000,
,,,-00.000002170000,  15.00000,
,,,-00.000002160000,  15.00000,
,,,-00.000002150000,  15.20000,
,,,-00.000002140000,  15.20000,
,,,-00.000002130000,  15.20000,
,,,-00.000002120000,  15.20000,
,,,-00.000002110000,  15.00000,
,,,-00.000002100000,  15.20000,
,,,-00.000002090000,  15.20000,
,,,-00.000002080000,  15.00000,
,,,-00.000002070000,  15.20000,
,,,-00.000002060000,  15.20000,
,,,-00.000002050000,  15.00000,
,,,-00.000002040000,  15.20000,
,,,-00.000002030000,  15.00000,
,,,-00.000002020000,  15.00000,
,,,-00.000002010000,  15.20000,
,,,-00.000002000000,  15.00000,
,,,-00.000001990000,  15.20000,
,,,-00.000001980000,  15.00000,
,,,-00.000001970000,  15.20000,
,,,-00.000001960000,  15.20000,
,,,-00.000001950000,  15.00000,
,,,-00.000001940000,  15.20000,
,,,-00.000001930000,  15.20000,
,,,-00.000001920000,  15.20000,
,,,-00.000001910000,  15.20000,
,,,-00.000001900000,  15.20000,
,,,-00.000001890000,  15.20000,
,,,-00.000001880000,  15.20000,
,,,-00.000001870000,  15.20000,
,,,-00.000001860000,  15.20000,
,,,-00.000001850000,  15.20000,
,,,-00.000001840000,  15.20000,
,,,-00.000001830000,  15.20000,
,,,-00.000001820000,  15.00000,
,,,-00.000001810000,  15.00000,
,,,-00.000001800000,  15.00000,
,,,-00.000001790000,  15.00000,
,,,-00.000001780000,  15.00000,
,,,-00.000001770000,  15.20000,
,,,-00.000001760000,  15.00000,
,,,-00.000001750000,  15.20000,
,,,-00.000001740000,  15.00000,
,,,-00.000001730000,  15.20000,
,,,-00.000001720000,  15.00000,
,,,-00.000001710000,  15.00000,
,,,-00.000001700000,  15.20000,
,,,-00.000001690000,  15.00000,
,,,-00.000001680000,  15.20000,
,,,-00.000001670000,  15.00000,
,,,-00.000001660000,  15.20000,
,,,-00.000001650000,  15.20000,
,,,-00.000001640000,  15.00000,
,,,-00.000001630000,  15.00000,
,,,-00.000001620000,  15.20000,
,,,-00.000001610000,  15.20000,
,,,-00.000001600000,  15.00000,
,,,-00.000001590000,  15.20000,
,,,-00.000001580000,  15.20000,
,,,-00.000001570000,  15.00000,
,,,-00.000001560000,  15.20000,
,,,-00.000001550000,  15.20000,
,,,-00.000001540000,  15.00000,
,,,-00.000001530000,  15.20000,
,,,-00.000001520000,  15.00000,
,,,-00.000001510000,  15.00000,
,,,-00.000001500000,  15.20000,
,,,-00.000001490000,  15.20000,
,,,-00.000001480000,  15.00000,
,,,-00.000001470000,  15.20000,
,,,-00.000001460000,  15.00000,
,,,-00.000001450000,  15.20000,
,,,-00.000001440000,  15.20000,
,,,-00.000001430000,  15.20000,
,,,-00.000001420000,  15.20000,
,,,-00.000001410000,  15.00000,
,,,-00.000001400000,  15.00000,
,,,-00.000001390000,  15.20000,
,,,-00.000001380000,  15.20000,
,,,-00.000001370000,  15.00000,
,,,-00.000001360000,  15.20000,
,,,-00.000001350000,  15.00000,
,,,-00.000001340000,  15.00000,
,,,-00.000001330000,  15.20000,
,,,-00.000001320000,  15.20000,
,,,-00.000001310000,  15.00000,
,,,-00.000001300000,  15.00000,
,,,-00.000001290000,  15.20000,
,,,-00.000001280000,  15.20000,
,,,-00.000001270000,  15.00000,
,,,-00.000001260000,  15.20000,
,,,-00.000001250000,  15.20000,
,,,-00.000001240000,  15.20000,
,,,-00.000001230000,  15.20000,
,,,-00.000001220000,  15.00000,
,,,-00.000001210000,  15.00000,
,,,-00.000001200000,  15.00000,
,,,-00.000001190000,  15.00000,
,,,-00.000001180000,  15.20000,
,,,-00.000001170000,  15.00000,
,,,-00.000001160000,  15.20000,
,,,-00.000001150000,  15.20000,
,,,-00.000001140000,  15.20000,
,,,-00.000001130000,  15.20000,
,,,-00.000001120000,  15.20000,
,,,-00.000001110000,  15.20000,
,,,-00.000001100000,  15.20000,
,,,-00.000001090000,  15.20000,
,,,-00.000001080000,  15.00000,
,,,-00.000001070000,  15.20000,
,,,-00.000001060000,  15.00000,
,,,-00.000001050000,  15.00000,
,,,-00.000001040000,  15.00000,
,,,-00.000001030000,  15.00000,
,,,-00.000001020000,  15.20000,
,,,-00.000001010000,  15.20000,
,,,-00.000001000000,  15.00000,
,,,-00.000000990000,  15.20000,
,,,-00.000000980000,  15.20000,
,,,-00.000000970000,  15.00000,
,,,-00.000000960000,  15.00000,
,,,-00.000000950000,  15.20000,
,,,-00.000000940000,  15.20000,
,,,-00.000000930000,  15.00000,
,,,-00.000000920000,  15.00000,
,,,-00.000000910000,  15.00000,
,,,-00.000000900000,  15.20000,
,,,-00.000000890000,  15.20000,
,,,-00.000000880000,  15.20000,
,,,-00.000000870000,  15.00000,
,,,-00.000000860000,  15.20000,
,,,-00.000000850000,  15.00000,
,,,-00.000000840000,  15.20000,
,,,-00.000000830000,  15.00000,
,,,-00.000000820000,  15.20000,
,,,-00.000000810000,  15.20000,
,,,-00.000000800000,  15.20000,
,,,-00.000000790000,  15.00000,
,,,-00.000000780000,  15.20000,
,,,-00.000000770000,  15.20000,
,,,-00.000000760000,  15.20000,
,,,-00.000000750000,  15.20000,
,,,-00.000000740000,  15.20000,
,,,-00.000000730000,  15.20000,
,,,-00.000000720000,  15.00000,
,,,-00.000000710000,  15.00000,
,,,-00.000000700000,  14.60000,
,,,-00.000000690000,  14.40000,
,,,-00.000000680000,  14.20000,
,,,-00.000000670000,  14.20000,
,,,-00.000000660000,  14.00000,
,,,-00.000000650000,  13.80000,
,,,-00.000000640000,  13.60000,
,,,-00.000000630000,  13.60000,
,,,-00.000000620000,  13.40000,
,,,-00.000000610000,  13.40000,
,,,-00.000000600000,  13.20000,
,,,-00.000000590000,  13.00000,
,,,-00.000000580000,  13.00000,
,,,-00.000000570000,  12.80000,
,,,-00.000000560000,  12.60000,
,,,-00.000000550000,  12.60000,
,,,-00.000000540000,  12.40000,
,,,-00.000000530000,  12.20000,
,,,-00.000000520000,  12.00000,
,,,-00.000000510000,  12.00000,
,,,-00.000000500000,  12.00000,
,,,-00.000000490000,  11.80000,
,,,-00.000000480000,  11.60000,
,,,-00.000000470000,  11.60000,
,,,-00.000000460000,  11.40000,
,,,-00.000000450000,  11.20000,
,,,-00.000000440000,  11.00000,
,,,-00.000000430000,  11.00000,
,,,-00.000000420000,  10.80000,
,,,-00.000000410000,  10.80000,
,,,-00.000000400000,  10.60000,
,,,-00.000000390000,  10.60000,
,,,-00.000000380000,  10.40000,
,,,-00.000000370000,  10.20000,
,,,-00.000000360000,  10.20000,
,,,-00.000000350000,  10.00000,
,,,-00.000000340000,  10.00000,
,,,-00.000000330000,   9.80000,
,,,-00.000000320000,   9.60000,
,,,-00.000000310000,   9.60000,
,,,-00.000000300000,   9.60000,
,,,-00.000000290000,   9.40000,
,,,-00.000000280000,   9.20000,
,,,-00.000000270000,   9.20000,
,,,-00.000000260000,   9.00000,
,,,-00.000000250000,   8.80000,
,,,-00.000000240000,   8.80000,
,,,-00.000000230000,   8.80000,
,,,-00.000000220000,   8.60000,
,,,-00.000000210000,   8.60000,
,,,-00.000000200000,   8.40000,
,,,-00.000000190000,   8.20000,
,,,-00.000000180000,   8.20000,
,,,-00.000000170000,   8.00000,
,,,-00.000000160000,   8.00000,
,,,-00.000000150000,   8.00000,
,,,-00.000000140000,   7.80000,
,,,-00.000000130000,   7.60000,
,,,-00.000000120000,   7.60000,
,,,-00.000000110000,   7.60000,
,,,-00.000000100000,   7.40000,
,,,-00.000000090000,   7.40000,
,,,-00.000000080000,   7.20000,
,,,-00.000000070000,   7.00000,
,,,-00.000000060000,   7.00000,
,,,-00.000000050000,   7.00000,
,,,-00.000000040000,   6.80000,
,,,-00.000000030000,   6.60000,
,,,-00.000000020000,   6.80000,
,,,-00.000000010000,   6.60000,
,,,-00.000000000000,   6.60000,
,,,00.000000010000,   6.40000,
,,,00.000000020000,   6.40000,
,,,00.000000030000,   6.20000,
,,,00.000000040000,   6.20000,
,,,00.000000050000,   6.00000,
,,,00.000000060000,   6.00000,
,,,00.000000070000,   5.80000,
,,,00.000000080000,   5.80000,
,,,00.000000090000,   5.80000,
,,,00.000000100000,   5.80000,
,,,00.000000110000,   5.60000,
,,,00.000000120000,   5.40000,
,,,00.000000130000,   5.40000,
,,,00.000000140000,   5.40000,
,,,00.000000150000,   5.40000,
,,,00.000000160000,   5.20000,
,,,00.000000170000,   5.20000,
,,,00.000000180000,   5.00000,
,,,00.000000190000,   5.00000,
,,,00.000000200000,   5.00000,
,,,00.000000210000,   4.80000,
,,,00.000000220000,   4.80000,
,,,00.000000230000,   4.80000,
,,,00.000000240000,   4.80000,
,,,00.000000250000,   4.80000,
,,,00.000000260000,   4.60000,
,,,00.000000270000,   4.60000,
,,,00.000000280000,   4.40000,
,,,00.000000290000,   4.40000,
,,,00.000000300000,   4.40000,
,,,00.000000310000,   4.20000,
,,,00.000000320000,   4.20000,
,,,00.000000330000,   4.40000,
,,,00.000000340000,   4.20000,
,,,00.000000350000,   4.00000,
,,,00.000000360000,   4.00000,
,,,00.000000370000,   4.00000,
,,,00.000000380000,   4.00000,
,,,00.000000390000,   4.00000,
,,,00.000000400000,   4.00000,
,,,00.000000410000,   4.00000,
,,,00.000000420000,   4.00000,
,,,00.000000430000,   4.00000,
,,,00.000000440000,   3.80000,
,,,00.000000450000,   3.80000,
,,,00.000000460000,   3.80000,
,,,00.000000470000,   3.80000,
,,,00.000000480000,   3.80000,
,,,00.000000490000,   4.00000,
,,,00.000000500000,   4.00000,
,,,00.000000510000,   3.80000,
,,,00.000000520000,   3.80000,
,,,00.000000530000,   4.00000,
,,,00.000000540000,   4.00000,
,,,00.000000550000,   3.80000,
,,,00.000000560000,   4.00000,
,,,00.000000570000,   3.80000,
,,,00.000000580000,   3.80000,
,,,00.000000590000,   3.80000,
,,,00.000000600000,   3.80000,
,,,00.000000610000,   4.00000,
,,,00.000000620000,   3.80000,
,,,00.000000630000,   3.80000,
,,,00.000000640000,   3.80000,
,,,00.000000650000,   3.80000,
,,,00.000000660000,   3.80000,
,,,00.000000670000,   3.80000,
,,,00.000000680000,   3.80000,
,,,00.000000690000,   3.80000,
,,,00.000000700000,   3.80000,
,,,00.000000710000,   3.80000,
,,,00.000000720000,   3.80000,
,,,00.000000730000,   3.80000,
,,,00.000000740000,   3.80000,
,,,00.000000750000,   3.80000,
,,,00.000000760000,   3.80000,
,,,00.000000770000,   3.80000,
,,,00.000000780000,   3.60000,
,,,00.000000790000,   3.60000,
,,,00.000000800000,   3.80000,
,,,00.000000810000,   3.80000,
,,,00.000000820000,   3.80000,
,,,00.000000830000,   3.60000,
,,,00.000000840000,   3.80000,
,,,00.000000850000,   3.60000,
,,,00.000000860000,   3.60000,
,,,00.000000870000,   3.60000,
,,,00.000000880000,   3.60000,
,,,00.000000890000,   3.40000,
,,,00.000000900000,   3.20000,
,,,00.000000910000,   3.20000,
,,,00.000000920000,   3.00000,
,,,00.000000930000,   3.00000,
,,,00.000000940000,   3.00000,
,,,00.000000950000,   3.00000,
,,,00.000000960000,   3.00000,
,,,00.000000970000,   3.20000,
,,,00.000000980000,   3.20000,
,,,00.000000990000,   3.40000,
,,,00.000001000000,   3.20000,
,,,00.000001010000,   3.20000,
,,,00.000001020000,   3.00000,
,,,00.000001030000,   3.00000,
,,,00.000001040000,   3.00000,
,,,00.000001050000,   3.00000,
,,,00.000001060000,   3.00000,
,,,00.000001070000,   3.00000,
,,,00.000001080000,   3.00000,
,,,00.000001090000,   3.00000,
,,,00.000001100000,   3.00000,
,,,00.000001110000,   2.80000,
,,,00.000001120000,   2.80000,
,,,00.000001130000,   2.60000,
,,,00.000001140000,   2.60000,
,,,00.000001150000,   2.60000,
,,,00.000001160000,   2.80000,
,,,00.000001170000,   2.60000,
